{
  "Deathtouch": true,
  "Defender": true,
  "Double Strike": true,
  "Enchant": true,
  "Equip": true,
  "First Strike": true,
  "Flash": true,
  "Flying": true,
  "Haste": true,
  "Hexproof": true,
  "Indestructible": true,
  "Lifelink": true,
  "Menace": true,
  "Prowess": true,
  "Reach": true,
  "Trample": true,
  "Vigilance": true
}
