{
  "{T}": "t.svg",
  "{Q}": "q.svg",
  "{PW}": "planeswalk.svg",
  "{CHAOS}": "chaos.svg",

  "{X}": "x.svg",
  "{Y}": "y.svg",
  "{Z}": "z.svg",


  "{0}": "0.svg",
  "{1}": "1.svg",
  "{2}": "2.svg",
  "{3}": "3.svg",
  "{4}": "4.svg",
  "{5}": "5.svg",
  "{6}": "6.svg",
  "{7}": "7.svg",
  "{8}": "8.svg",
  "{9}": "9.svg",
  "{10}": "10.svg",
  "{11}": "11.svg",
  "{12}": "12.svg",
  "{13}": "13.svg",
  "{14}": "14.svg",
  "{15}": "15.svg",
  "{16}": "16.svg",
  "{17}": "17.svg",
  "{18}": "18.svg",
  "{19}": "19.svg",
  "{20}": "20.svg",

  "{W}": "w.svg",
  "{B}": "b.svg",
  "{U}": "u.svg",
  "{R}": "r.svg",
  "{G}": "g.svg",
  "{C}": "c.svg",
  "{S}": "s.svg",



  "{W/U}": "wu.svg",
  "{W/B}": "wb.svg",

  "{B/R}": "br.svg",
  "{B/G}": "bg.svg",

  "{U/B}": "ub.svg",
  "{U/R}": "ur.svg",

  "{R/G}": "rg.svg",
  "{R/W}": "rw.svg",

  "{G/W}": "gw.svg",
  "{G/U}": "gu.svg",


  "{2/W}": "2w.svg",
  "{2/U}": "2u.svg",
  "{2/B}": "2b.svg",
  "{2/R}": "2r.svg",
  "{2/G}": "2g.svg",

  "{P}": "cp.svg",
  "{W/P}": "wp.svg",
  "{U/P}": "up.svg",
  "{B/P}": "bp.svg",
  "{R/P}": "rp.svg",
  "{G/P}": "gp.svg"



}
